<svg width="16" height="16" viewBox="0 0 16 16" fill="none" xmlns="http://www.w3.org/2000/svg">
<path d="M1.4751 15.5001C0.650099 15.5001 0.275098 14.9001 0.650098 14.1751L7.3251 1.0501C7.7001 0.325098 8.3001 0.325098 8.6751 1.0501L15.3501 14.1751C15.7251 14.9001 15.3501 15.5001 14.5251 15.5001H1.4751Z" fill="#FFCE31"/>
<path d="M6.94989 5.8998L7.64989 10.5248C7.72489 10.9748 8.29989 10.9748 8.37489 10.5248L9.04989 5.8998C9.17489 4.0998 6.82489 4.0998 6.94989 5.8998Z" fill="#231F20"/>
<path d="M7.99995 13.4496C8.57985 13.4496 9.04995 12.9795 9.04995 12.3996C9.04995 11.8197 8.57985 11.3496 7.99995 11.3496C7.42005 11.3496 6.94995 11.8197 6.94995 12.3996C6.94995 12.9795 7.42005 13.4496 7.99995 13.4496Z" fill="#231F20"/>
</svg>
