<?xml version="1.0" encoding="utf-8"?>
<!-- Generator: Adobe Illustrator 25.2.1, SVG Export Plug-In . SVG Version: 6.00 Build 0)  -->
<svg version="1.1" id="Layer_1" xmlns="http://www.w3.org/2000/svg" xmlns:xlink="http://www.w3.org/1999/xlink" x="0px" y="0px"
	 viewBox="0 0 288 167" style="enable-background:new 0 0 288 167;" xml:space="preserve">
<style type="text/css">
	.st0{opacity:0.2;}
	.st1{fill:#2A9DF4;}
	.st2{fill:#FFFFFF;stroke:#2A9DF4;stroke-width:2;stroke-linecap:round;stroke-linejoin:round;stroke-miterlimit:10;}
	.st3{fill:#FFFFFF;}
	.st4{fill:#E8F0FE;}
	.st5{fill:none;stroke:#2A9DF4;stroke-width:2;stroke-linecap:round;stroke-linejoin:round;stroke-miterlimit:10;}
</style>
<g>
	<g class="st0">
		<path class="st1" d="M239.4,110.7h-0.6h-6h-0.2c-4.4,0-8-3.6-8-8c0-4.4,3.6-8,8-8h21.4c4.4,0,8-3.6,8-8s-3.6-8-8-8h-25
			c4.4-0.1,7.9-3.6,7.9-8c0-4.4-3.6-8-8-8H44c-4.4,0-8,3.6-8,8s3.6,8,8,8h25h4h0.2c4.4,0.1,7.9,3.6,7.9,8c0,4.4-3.6,8-8,8H28.1
			c-4.4,0-8,3.6-8,8s3.6,8,8,8h42.7c-4.4,0-8,3.6-8,8c0,4.4,3.6,8,8,8h168.5c4.4,0,8-3.6,8-8S243.8,110.7,239.4,110.7z"/>
		<path class="st1" d="M260.1,110.7c-4.4,0-8,3.6-8,8s3.6,8,8,8c4.4,0,8-3.6,8-8S264.6,110.7,260.1,110.7z"/>
	</g>
	<path class="st2" d="M197.6,146.6l-89.5-9.4c-2.2-0.2-3.8-2.2-3.6-4.4l9.4-89.5c0.2-2.2,2.2-3.8,4.4-3.6l89.5,9.4
		c2.2,0.2,3.8,2.2,3.6,4.4l-9.4,89.5C201.7,145.3,199.8,146.9,197.6,146.6z"/>
	<g>
		<path class="st3" d="M174.9,28l-0.6-4.1c-0.2-1.6-1.8-2.8-3.4-2.5L79.2,34.4c-1.6,0.2-2.8,1.8-2.5,3.4l13.1,91.7
			c0.2,1.6,1.8,2.8,3.4,2.5l10.6-1.5l0.5-5l-7.6,1.1c-1.3,0.2-2.4-0.7-2.6-2L82.1,41.3c-0.2-1.3,0.7-2.4,2-2.6l83.4-11.9
			c1.3-0.2,2.4,0.7,2.6,2l2.2,15.7l6,0.6l-0.8-5.5c0,0-0.1,0-0.1,0c-0.5,0-0.9-0.4-1-0.9l-0.9-6c-0.1-0.5,0.3-1.1,0.8-1.1
			c0,0,0,0,0,0l-0.4-2.8C175.5,28.9,175,28.5,174.9,28z"/>
		<g>
			<path class="st1" d="M176.1,28.8c0.5-0.1,0.9-0.6,0.8-1.1l-0.6-4.1c-0.4-2.7-2.9-4.6-5.7-4.2L78.9,32.4c-2.7,0.4-4.6,2.9-4.2,5.7
				l13.1,91.7c0.4,2.5,2.5,4.3,4.9,4.3c0.2,0,0.5,0,0.7,0l10.1-1.4l0.1-1l0.1-1l-10.6,1.5c-1.6,0.2-3.2-0.9-3.4-2.5L76.7,37.8
				c-0.2-1.6,0.9-3.2,2.5-3.4l91.7-13.1c1.6-0.2,3.2,0.9,3.4,2.5l0.6,4.1C175,28.5,175.5,28.9,176.1,28.8
				C176.1,28.8,176.1,28.8,176.1,28.8z"/>
			<path class="st1" d="M177.6,32.4c-0.1-0.5-0.6-0.9-1.1-0.8c0,0,0,0,0,0c-0.5,0.1-0.9,0.6-0.8,1.1l0.9,6c0.1,0.5,0.5,0.9,1,0.9
				c0,0,0.1,0,0.1,0c0,0,0,0,0,0c0.5-0.1,0.9-0.6,0.8-1.1L177.6,32.4z"/>
		</g>
		<path class="st4" d="M114.7,39.9c1-0.8,2.3-1.2,3.7-1.1l53.9,5.7l-2.2-15.7c-0.2-1.3-1.4-2.1-2.6-2L84.1,38.7
			c-1.3,0.2-2.1,1.4-2,2.6L94,124.7c0.2,1.3,1.4,2.1,2.6,2l7.6-1.1l8.7-82.3C113,41.9,113.7,40.7,114.7,39.9z"/>
	</g>
	<path class="st2" d="M192.1,123.1l-73.8-7.8c-1.1-0.1-1.9-1.1-1.8-2.2l6.4-60.9c0.1-1.1,1.1-1.9,2.2-1.8l73.8,7.8
		c1.1,0.1,1.9,1.1,1.8,2.2l-6.4,60.9C194.2,122.4,193.2,123.2,192.1,123.1z"/>
	<path class="st4" d="M122.2,110.9l0.9-8.9l13.5-10.3c2-1.5,4.8-1.2,6.4,0.7l6.9,8c1,1.2,2.7,1.3,3.9,0.4L171.6,87
		c1.6-1.2,3.8-0.8,4.9,0.9l13.6,21.3l-0.9,8.9L122.2,110.9z"/>
	<path class="st5" d="M123.1,102l13.5-10.3c2-1.5,4.8-1.2,6.4,0.7l6.9,8c1,1.2,2.7,1.3,3.9,0.4L171.6,87c1.6-1.2,3.8-0.8,4.9,0.9
		l13.6,21.3"/>
	<circle class="st5" cx="139.8" cy="71.9" r="6.7"/>
</g>
</svg>
