<svg width="21" height="19" viewBox="0 0 21 19" fill="none" xmlns="http://www.w3.org/2000/svg">
<path d="M0.550506 5.56961V5.56952C0.550276 4.22751 1.08964 2.94176 2.04725 2.00156C3.00486 1.06136 4.30029 0.545678 5.64207 0.57053L5.64207 0.570675L5.65422 0.57061C7.26002 0.562082 8.79226 1.24308 9.86198 2.44072L10.2424 2.86666L10.6229 2.44072C11.6926 1.24308 13.2248 0.562082 14.8306 0.57061L14.8306 0.570755L14.8428 0.57053C16.1846 0.545678 17.48 1.06136 18.4376 2.00156C19.3952 2.94176 19.9346 4.22751 19.9343 5.56952V5.56961C19.9343 8.09433 18.4288 10.3669 16.3652 12.4639C15.3399 13.5057 14.1967 14.4847 13.0705 15.4132C12.748 15.679 12.4257 15.9417 12.1079 16.2007C11.4549 16.7329 10.821 17.2495 10.2441 17.746C9.64148 17.2226 8.97666 16.679 8.29235 16.1195C8.00333 15.8832 7.71084 15.644 7.41808 15.4023C6.29175 14.4725 5.14819 13.4947 4.12233 12.4547C2.05754 10.3614 0.550506 8.09586 0.550506 5.56961Z" fill="#EB5757" stroke="#EB5757" stroke-width="1.0202"/>
</svg>
