<svg width="12" height="12" viewBox="0 0 12 12" fill="none" xmlns="http://www.w3.org/2000/svg">
<path fill-rule="evenodd" clip-rule="evenodd" d="M0 0H12V4.35714H10V2H7V10H9V12H3V10H5V2H2V4.35714H0V0Z" fill="#187BCD"/>
</svg>
