<svg width="20" height="15" viewBox="0 0 20 15" fill="none" xmlns="http://www.w3.org/2000/svg">
<path opacity="0.4" d="M19.3309 2.44275C18.9119 2.17879 18.3969 2.15544 17.9579 2.37879L16.4759 3.12701C15.9279 3.40316 15.5879 3.96153 15.5879 4.58285V10.4164C15.5879 11.0377 15.9279 11.595 16.4759 11.8732L17.9569 12.6204C18.1579 12.724 18.3729 12.7737 18.5879 12.7737C18.8459 12.7737 19.1019 12.7006 19.3309 12.5575C19.7499 12.2945 19.9999 11.8387 19.9999 11.3392V3.66204C19.9999 3.16255 19.7499 2.70671 19.3309 2.44275Z" fill="#187BCD"/>
<path d="M9.9051 15H4.11304C1.69102 15 0 13.3299 0 10.9391V4.06091C0 1.66904 1.69102 0 4.11304 0H9.9051C12.3271 0 14.0181 1.66904 14.0181 4.06091V10.9391C14.0181 13.3299 12.3271 15 9.9051 15Z" fill="#187BCD"/>
</svg>
