<svg width="16" height="12" viewBox="0 0 16 12" fill="none" xmlns="http://www.w3.org/2000/svg">
<path opacity="0.5" d="M14.9982 2.58206C14.6839 2.38409 14.2977 2.36658 13.9684 2.53409L12.8569 3.09526C12.4459 3.30237 12.1909 3.72115 12.1909 4.18714V8.56226C12.1909 9.02825 12.4459 9.44628 12.8569 9.6549L13.9677 10.2153C14.1184 10.293 14.2797 10.3303 14.4409 10.3303C14.6344 10.3303 14.8264 10.2755 14.9982 10.1681C15.3124 9.97089 15.5 9.62902 15.5 9.2544V3.49653C15.5 3.12191 15.3124 2.78003 14.9982 2.58206Z" fill="#FFFFFF"/>
<path opacity="0.7" d="M7.92882 12H3.58478C1.76826 12 0.5 10.7475 0.5 8.95431V3.79569C0.5 2.00178 1.76826 0.75 3.58478 0.75H7.92882C9.74534 0.75 11.0136 2.00178 11.0136 3.79569V8.95431C11.0136 10.7475 9.74534 12 7.92882 12Z" fill="#FFFFFF"/>
</svg>
