<svg width="24" height="25" viewBox="0 0 24 25" fill="none" xmlns="http://www.w3.org/2000/svg">
<g opacity="1">
<path d="M21.6389 14.8957H17.5906C16.1042 14.8948 14.8993 13.6909 14.8984 12.2045C14.8984 10.718 16.1042 9.51409 17.5906 9.51318H21.6389" stroke="#b8bbbe" stroke-width="1.5" stroke-linecap="round" stroke-linejoin="round"/>
<path d="M18.0486 12.1427H17.7369" stroke="#b8bbbe" stroke-width="1.5" stroke-linecap="round" stroke-linejoin="round"/>
<path fill-rule="evenodd" clip-rule="evenodd" d="M7.74766 3.5H16.3911C19.2892 3.5 21.6388 5.84951 21.6388 8.74766V15.9247C21.6388 18.8229 19.2892 21.1724 16.3911 21.1724H7.74766C4.84951 21.1724 2.5 18.8229 2.5 15.9247V8.74766C2.5 5.84951 4.84951 3.5 7.74766 3.5Z" stroke="#b8bbbe" stroke-width="1.5" stroke-linecap="round" stroke-linejoin="round"/>
<path d="M7.03558 8.0382H12.4345" stroke="#b8bbbe" stroke-width="1.5" stroke-linecap="round" stroke-linejoin="round"/>
</g>
</svg>
