<svg width="24" height="24" viewBox="0 0 24 24" fill="none" xmlns="http://www.w3.org/2000/svg">
<path fill-rule="evenodd" clip-rule="evenodd" d="M19 21L12 16L5 21V5C5 3.89543 5.89543 3 7 3H17C18.1046 3 19 3.89543 19 5V21Z" fill="#187BCD" stroke="#187BCD" stroke-width="2" stroke-linecap="round" stroke-linejoin="round"/>
</svg>
