<svg width="18" height="18" viewBox="0 0 18 18" fill="none" xmlns="http://www.w3.org/2000/svg">
<path d="M9 18C13.9706 18 18 13.9706 18 9C18 4.02944 13.9706 0 9 0C4.02944 0 0 4.02944 0 9C0 13.9706 4.02944 18 9 18Z" fill="#187BCD"/>
<path d="M11.6207 6.56809C11.8791 6.30966 12.2981 6.30966 12.5565 6.56809C12.815 6.82653 12.815 7.24554 12.5565 7.50397L8.58595 11.4746C8.32752 11.733 7.90851 11.733 7.65007 11.4746L5.44419 9.26868C5.18576 9.01024 5.18576 8.59124 5.44419 8.3328C5.70263 8.07436 6.12163 8.07436 6.38007 8.3328L8.11801 10.0707L11.6207 6.56809Z" fill="white"/>
</svg>
