<svg width="24" height="24" viewBox="0 0 24 24" fill="none" xmlns="http://www.w3.org/2000/svg">
<path d="M12 5.00005V19" stroke="#8991A0" stroke-width="2" stroke-linecap="round" stroke-linejoin="round"/>
<path d="M5 12.0001H19" stroke="#8991A0" stroke-width="2" stroke-linecap="round" stroke-linejoin="round"/>
</svg>
