<svg width="24" height="24" viewBox="0 0 24 24" fill="none" xmlns="http://www.w3.org/2000/svg">
<path d="M4 12H20" stroke="#C2C9D6" stroke-width="2" stroke-linecap="round" stroke-linejoin="round"/>
<path d="M14 6L20 12L14 18" stroke="#C2C9D6" stroke-width="2" stroke-linecap="round" stroke-linejoin="round"/>
</svg>
