<svg width="24" height="24" viewBox="0 0 24 24" fill="none" xmlns="http://www.w3.org/2000/svg">
<path d="M21.6387 3.36753C19.1923 1.28275 15.5539 1.65774 13.3084 3.97466L12.429 4.88089L11.5495 3.97466C9.30848 1.65774 5.66567 1.28275 3.21927 3.36753C0.415734 5.76034 0.268414 10.0549 2.77731 12.6486L11.4156 21.5681C11.9736 22.144 12.8799 22.144 13.4379 21.5681L22.0762 12.6486C24.5895 10.0549 24.4422 5.76034 21.6387 3.36753V3.36753Z" fill="#E42B2B"/>
</svg>
