<?xml version="1.0" encoding="utf-8"?>
<!-- Generator: Adobe Illustrator 25.0.1, SVG Export Plug-In . SVG Version: 6.00 Build 0)  -->
<svg version="1.1" fill="#C2C9D6" id="Layer_1" xmlns="http://www.w3.org/2000/svg" xmlns:xlink="http://www.w3.org/1999/xlink" x="0px" y="0px"
	 viewBox="0 0 512 512" style="enable-background:new 0 0 512 512;" xml:space="preserve">
<path d="M341.6,119h-34.2v85.6h-60.2L199.8,119h-29.4v85.6h-34.2v34.2h34.2v34.2h-34.2v34.2h34.2V393h34.2v-85.6h60.2l47.4,85.6
	h29.4v-85.6h34.2v-34.2h-34.2v-34.2h34.2v-34.2h-34.2V119z M204.6,273.1v-34.2H227l18.9,34.2H204.6z M307.4,273.1H285l-18.9-34.2
	h41.3V273.1z"/>
<path d="M256,0C115,0,0,115.1,0,256c0,141,115.1,256,256,256c141,0,256-115.1,256-256C512,115,396.9,0,256,0z M256,482
	C131.4,482,30,380.6,30,256S131.4,30,256,30s226,101.4,226,226S380.6,482,256,482z"/>
</svg>
