<svg width="18" height="18" viewBox="0 0 18 18" fill="none" xmlns="http://www.w3.org/2000/svg">
<path fill-rule="evenodd" clip-rule="evenodd" d="M8.5 2L10.8175 6.69006L16 7.44677L12.25 11.0954L13.135 16.25L8.5 13.8151L3.865 16.25L4.75 11.0954L1 7.44677L6.1825 6.69006L8.5 2V2Z" stroke="#8991A0" stroke-width="2" stroke-linecap="round" stroke-linejoin="round"/>
</svg>
